^C:\USERS\MAGSHIMIM\DOCUMENTS\MAGSHIMIM\2ND YEAR\CPP\CHESSPROJECT\CHESS\CHESS\SOURCE.CPP|C:\USERS\MAGSHIMIM\DOCUMENTS\MAGSHIMIM\2ND YEAR\CPP\CHESSPROJECT\CHESS\CHESS\STDAFX.CPP
C:\USERS\MAGSHIMIM\DOCUMENTS\MAGSHIMIM\2ND YEAR\CPP\CHESSPROJECT\CHESS\CHESS\DEBUG\VC141.PDB
C:\USERS\MAGSHIMIM\DOCUMENTS\MAGSHIMIM\2ND YEAR\CPP\CHESSPROJECT\CHESS\CHESS\DEBUG\VC141.IDB
C:\USERS\MAGSHIMIM\DOCUMENTS\MAGSHIMIM\2ND YEAR\CPP\CHESSPROJECT\CHESS\CHESS\DEBUG\STDAFX.OBJ
C:\USERS\MAGSHIMIM\DOCUMENTS\MAGSHIMIM\2ND YEAR\CPP\CHESSPROJECT\CHESS\CHESS\DEBUG\SOURCE.OBJ
^C:\USERS\MAGSHIMIM\DOCUMENTS\MAGSHIMIM\2ND YEAR\CPP\CHESSPROJECT\CHESS\CHESS\BORAD.CPP|C:\USERS\MAGSHIMIM\DOCUMENTS\MAGSHIMIM\2ND YEAR\CPP\CHESSPROJECT\CHESS\CHESS\CUBE.CPP|C:\USERS\MAGSHIMIM\DOCUMENTS\MAGSHIMIM\2ND YEAR\CPP\CHESSPROJECT\CHESS\CHESS\PIECE.CPP|C:\USERS\MAGSHIMIM\DOCUMENTS\MAGSHIMIM\2ND YEAR\CPP\CHESSPROJECT\CHESS\CHESS\SOURCE.CPP
C:\USERS\MAGSHIMIM\DOCUMENTS\MAGSHIMIM\2ND YEAR\CPP\CHESSPROJECT\CHESS\CHESS\DEBUG\VC141.PDB
C:\USERS\MAGSHIMIM\DOCUMENTS\MAGSHIMIM\2ND YEAR\CPP\CHESSPROJECT\CHESS\CHESS\DEBUG\VC141.IDB
C:\USERS\MAGSHIMIM\DOCUMENTS\MAGSHIMIM\2ND YEAR\CPP\CHESSPROJECT\CHESS\CHESS\DEBUG\PIECE.OBJ
C:\USERS\MAGSHIMIM\DOCUMENTS\MAGSHIMIM\2ND YEAR\CPP\CHESSPROJECT\CHESS\CHESS\DEBUG\CUBE.OBJ
^C:\USERS\MAGSHIMIM\DOCUMENTS\MAGSHIMIM\2ND YEAR\CPP\CHESSPROJECT\CHESS\CHESS\ROOK.CPP|C:\USERS\MAGSHIMIM\DOCUMENTS\MAGSHIMIM\2ND YEAR\CPP\CHESSPROJECT\CHESS\CHESS\SOURCE.CPP
C:\USERS\MAGSHIMIM\DOCUMENTS\MAGSHIMIM\2ND YEAR\CPP\CHESSPROJECT\CHESS\CHESS\DEBUG\VC141.PDB
C:\USERS\MAGSHIMIM\DOCUMENTS\MAGSHIMIM\2ND YEAR\CPP\CHESSPROJECT\CHESS\CHESS\DEBUG\VC141.IDB
C:\USERS\MAGSHIMIM\DOCUMENTS\MAGSHIMIM\2ND YEAR\CPP\CHESSPROJECT\CHESS\CHESS\DEBUG\SOURCE.OBJ
^C:\USERS\MAGSHIMIM\DOCUMENTS\MAGSHIMIM\2ND YEAR\CPP\CHESSPROJECT\CHESS\CHESS\BORAD.CPP|C:\USERS\MAGSHIMIM\DOCUMENTS\MAGSHIMIM\2ND YEAR\CPP\CHESSPROJECT\CHESS\CHESS\CUBE.CPP|C:\USERS\MAGSHIMIM\DOCUMENTS\MAGSHIMIM\2ND YEAR\CPP\CHESSPROJECT\CHESS\CHESS\PIECE.CPP|C:\USERS\MAGSHIMIM\DOCUMENTS\MAGSHIMIM\2ND YEAR\CPP\CHESSPROJECT\CHESS\CHESS\ROOK.CPP|C:\USERS\MAGSHIMIM\DOCUMENTS\MAGSHIMIM\2ND YEAR\CPP\CHESSPROJECT\CHESS\CHESS\SOURCE.CPP
C:\USERS\MAGSHIMIM\DOCUMENTS\MAGSHIMIM\2ND YEAR\CPP\CHESSPROJECT\CHESS\CHESS\DEBUG\VC141.PDB
C:\USERS\MAGSHIMIM\DOCUMENTS\MAGSHIMIM\2ND YEAR\CPP\CHESSPROJECT\CHESS\CHESS\DEBUG\VC141.IDB
C:\USERS\MAGSHIMIM\DOCUMENTS\MAGSHIMIM\2ND YEAR\CPP\CHESSPROJECT\CHESS\CHESS\DEBUG\CUBE.OBJ
^C:\USERS\MAGSHIMIM\DOCUMENTS\MAGSHIMIM\2ND YEAR\CPP\CHESSPROJECT\CHESS\CHESS\BORAD.CPP|C:\USERS\MAGSHIMIM\DOCUMENTS\MAGSHIMIM\2ND YEAR\CPP\CHESSPROJECT\CHESS\CHESS\ROOK.CPP|C:\USERS\MAGSHIMIM\DOCUMENTS\MAGSHIMIM\2ND YEAR\CPP\CHESSPROJECT\CHESS\CHESS\SOURCE.CPP
C:\USERS\MAGSHIMIM\DOCUMENTS\MAGSHIMIM\2ND YEAR\CPP\CHESSPROJECT\CHESS\CHESS\DEBUG\VC141.PDB
C:\USERS\MAGSHIMIM\DOCUMENTS\MAGSHIMIM\2ND YEAR\CPP\CHESSPROJECT\CHESS\CHESS\DEBUG\VC141.IDB
C:\USERS\MAGSHIMIM\DOCUMENTS\MAGSHIMIM\2ND YEAR\CPP\CHESSPROJECT\CHESS\CHESS\DEBUG\SOURCE.OBJ
C:\USERS\MAGSHIMIM\DOCUMENTS\MAGSHIMIM\2ND YEAR\CPP\CHESSPROJECT\CHESS\CHESS\DEBUG\ROOK.OBJ
C:\USERS\MAGSHIMIM\DOCUMENTS\MAGSHIMIM\2ND YEAR\CPP\CHESSPROJECT\CHESS\CHESS\DEBUG\BORAD.OBJ
^C:\USERS\MAGSHIMIM\DOCUMENTS\MAGSHIMIM\2ND YEAR\CPP\CHESSPROJECT\CHESS\CHESS\BORAD.CPP|C:\USERS\MAGSHIMIM\DOCUMENTS\MAGSHIMIM\2ND YEAR\CPP\CHESSPROJECT\CHESS\CHESS\PIECE.CPP|C:\USERS\MAGSHIMIM\DOCUMENTS\MAGSHIMIM\2ND YEAR\CPP\CHESSPROJECT\CHESS\CHESS\ROOK.CPP|C:\USERS\MAGSHIMIM\DOCUMENTS\MAGSHIMIM\2ND YEAR\CPP\CHESSPROJECT\CHESS\CHESS\SOURCE.CPP
C:\USERS\MAGSHIMIM\DOCUMENTS\MAGSHIMIM\2ND YEAR\CPP\CHESSPROJECT\CHESS\CHESS\DEBUG\VC141.PDB
C:\USERS\MAGSHIMIM\DOCUMENTS\MAGSHIMIM\2ND YEAR\CPP\CHESSPROJECT\CHESS\CHESS\DEBUG\VC141.IDB
C:\USERS\MAGSHIMIM\DOCUMENTS\MAGSHIMIM\2ND YEAR\CPP\CHESSPROJECT\CHESS\CHESS\DEBUG\SOURCE.OBJ
C:\USERS\MAGSHIMIM\DOCUMENTS\MAGSHIMIM\2ND YEAR\CPP\CHESSPROJECT\CHESS\CHESS\DEBUG\PIECE.OBJ
C:\USERS\MAGSHIMIM\DOCUMENTS\MAGSHIMIM\2ND YEAR\CPP\CHESSPROJECT\CHESS\CHESS\DEBUG\BORAD.OBJ
^C:\USERS\MAGSHIMIM\DOCUMENTS\MAGSHIMIM\2ND YEAR\CPP\CHESSPROJECT\CHESS\CHESS\BISHOP.CPP|C:\USERS\MAGSHIMIM\DOCUMENTS\MAGSHIMIM\2ND YEAR\CPP\CHESSPROJECT\CHESS\CHESS\BORAD.CPP|C:\USERS\MAGSHIMIM\DOCUMENTS\MAGSHIMIM\2ND YEAR\CPP\CHESSPROJECT\CHESS\CHESS\CUBE.CPP|C:\USERS\MAGSHIMIM\DOCUMENTS\MAGSHIMIM\2ND YEAR\CPP\CHESSPROJECT\CHESS\CHESS\PIECE.CPP|C:\USERS\MAGSHIMIM\DOCUMENTS\MAGSHIMIM\2ND YEAR\CPP\CHESSPROJECT\CHESS\CHESS\ROOK.CPP|C:\USERS\MAGSHIMIM\DOCUMENTS\MAGSHIMIM\2ND YEAR\CPP\CHESSPROJECT\CHESS\CHESS\SOURCE.CPP|C:\USERS\MAGSHIMIM\DOCUMENTS\MAGSHIMIM\2ND YEAR\CPP\CHESSPROJECT\CHESS\CHESS\STDAFX.CPP
C:\USERS\MAGSHIMIM\DOCUMENTS\MAGSHIMIM\2ND YEAR\CPP\CHESSPROJECT\CHESS\CHESS\DEBUG\VC141.PDB
C:\USERS\MAGSHIMIM\DOCUMENTS\MAGSHIMIM\2ND YEAR\CPP\CHESSPROJECT\CHESS\CHESS\DEBUG\VC141.IDB
C:\USERS\MAGSHIMIM\DOCUMENTS\MAGSHIMIM\2ND YEAR\CPP\CHESSPROJECT\CHESS\CHESS\DEBUG\STDAFX.OBJ
C:\USERS\MAGSHIMIM\DOCUMENTS\MAGSHIMIM\2ND YEAR\CPP\CHESSPROJECT\CHESS\CHESS\DEBUG\SOURCE.OBJ
C:\USERS\MAGSHIMIM\DOCUMENTS\MAGSHIMIM\2ND YEAR\CPP\CHESSPROJECT\CHESS\CHESS\DEBUG\ROOK.OBJ
C:\USERS\MAGSHIMIM\DOCUMENTS\MAGSHIMIM\2ND YEAR\CPP\CHESSPROJECT\CHESS\CHESS\DEBUG\PIECE.OBJ
C:\USERS\MAGSHIMIM\DOCUMENTS\MAGSHIMIM\2ND YEAR\CPP\CHESSPROJECT\CHESS\CHESS\DEBUG\CUBE.OBJ
C:\USERS\MAGSHIMIM\DOCUMENTS\MAGSHIMIM\2ND YEAR\CPP\CHESSPROJECT\CHESS\CHESS\DEBUG\BISHOP.OBJ
^C:\USERS\MAGSHIMIM\DOCUMENTS\MAGSHIMIM\2ND YEAR\CPP\CHESSPROJECT\CHESS\CHESS\STDAFX.CPP
C:\USERS\MAGSHIMIM\DOCUMENTS\MAGSHIMIM\2ND YEAR\CPP\CHESSPROJECT\CHESS\CHESS\DEBUG\STDAFX.OBJ
^C:\USERS\MAGSHIMIM\DOCUMENTS\MAGSHIMIM\2ND YEAR\CPP\CHESSPROJECT\CHESS\CHESS\BISHOP.CPP|C:\USERS\MAGSHIMIM\DOCUMENTS\MAGSHIMIM\2ND YEAR\CPP\CHESSPROJECT\CHESS\CHESS\BORAD.CPP|C:\USERS\MAGSHIMIM\DOCUMENTS\MAGSHIMIM\2ND YEAR\CPP\CHESSPROJECT\CHESS\CHESS\CUBE.CPP|C:\USERS\MAGSHIMIM\DOCUMENTS\MAGSHIMIM\2ND YEAR\CPP\CHESSPROJECT\CHESS\CHESS\PIECE.CPP|C:\USERS\MAGSHIMIM\DOCUMENTS\MAGSHIMIM\2ND YEAR\CPP\CHESSPROJECT\CHESS\CHESS\ROOK.CPP|C:\USERS\MAGSHIMIM\DOCUMENTS\MAGSHIMIM\2ND YEAR\CPP\CHESSPROJECT\CHESS\CHESS\SOURCE.CPP
C:\USERS\MAGSHIMIM\DOCUMENTS\MAGSHIMIM\2ND YEAR\CPP\CHESSPROJECT\CHESS\CHESS\DEBUG\VC141.PDB
C:\USERS\MAGSHIMIM\DOCUMENTS\MAGSHIMIM\2ND YEAR\CPP\CHESSPROJECT\CHESS\CHESS\DEBUG\VC141.IDB
C:\USERS\MAGSHIMIM\DOCUMENTS\MAGSHIMIM\2ND YEAR\CPP\CHESSPROJECT\CHESS\CHESS\DEBUG\SOURCE.OBJ
C:\USERS\MAGSHIMIM\DOCUMENTS\MAGSHIMIM\2ND YEAR\CPP\CHESSPROJECT\CHESS\CHESS\DEBUG\ROOK.OBJ
C:\USERS\MAGSHIMIM\DOCUMENTS\MAGSHIMIM\2ND YEAR\CPP\CHESSPROJECT\CHESS\CHESS\DEBUG\PIECE.OBJ
C:\USERS\MAGSHIMIM\DOCUMENTS\MAGSHIMIM\2ND YEAR\CPP\CHESSPROJECT\CHESS\CHESS\DEBUG\CUBE.OBJ
C:\USERS\MAGSHIMIM\DOCUMENTS\MAGSHIMIM\2ND YEAR\CPP\CHESSPROJECT\CHESS\CHESS\DEBUG\BORAD.OBJ
C:\USERS\MAGSHIMIM\DOCUMENTS\MAGSHIMIM\2ND YEAR\CPP\CHESSPROJECT\CHESS\CHESS\DEBUG\BISHOP.OBJ
^C:\USERS\MAGSHIMIM\DOCUMENTS\MAGSHIMIM\2ND YEAR\CPP\CHESSPROJECT\CHESS\CHESS\CUBE.CPP
C:\USERS\MAGSHIMIM\DOCUMENTS\MAGSHIMIM\2ND YEAR\CPP\CHESSPROJECT\CHESS\CHESS\DEBUG\VC141.PDB
^C:\USERS\MAGSHIMIM\DOCUMENTS\MAGSHIMIM\2ND YEAR\CPP\CHESSPROJECT\CHESS\CHESS\BORAD.CPP|C:\USERS\MAGSHIMIM\DOCUMENTS\MAGSHIMIM\2ND YEAR\CPP\CHESSPROJECT\CHESS\CHESS\SOURCE.CPP
C:\USERS\MAGSHIMIM\DOCUMENTS\MAGSHIMIM\2ND YEAR\CPP\CHESSPROJECT\CHESS\CHESS\DEBUG\VC141.PDB
C:\USERS\MAGSHIMIM\DOCUMENTS\MAGSHIMIM\2ND YEAR\CPP\CHESSPROJECT\CHESS\CHESS\DEBUG\VC141.IDB
C:\USERS\MAGSHIMIM\DOCUMENTS\MAGSHIMIM\2ND YEAR\CPP\CHESSPROJECT\CHESS\CHESS\DEBUG\SOURCE.OBJ
C:\USERS\MAGSHIMIM\DOCUMENTS\MAGSHIMIM\2ND YEAR\CPP\CHESSPROJECT\CHESS\CHESS\DEBUG\BORAD.OBJ
^C:\USERS\MAGSHIMIM\DOCUMENTS\MAGSHIMIM\2ND YEAR\CPP\CHESSPROJECT\CHESS\CHESS\BORAD.CPP|C:\USERS\MAGSHIMIM\DOCUMENTS\MAGSHIMIM\2ND YEAR\CPP\CHESSPROJECT\CHESS\CHESS\KNIGHT.CPP|C:\USERS\MAGSHIMIM\DOCUMENTS\MAGSHIMIM\2ND YEAR\CPP\CHESSPROJECT\CHESS\CHESS\PAWN.CPP|C:\USERS\MAGSHIMIM\DOCUMENTS\MAGSHIMIM\2ND YEAR\CPP\CHESSPROJECT\CHESS\CHESS\SOURCE.CPP
C:\USERS\MAGSHIMIM\DOCUMENTS\MAGSHIMIM\2ND YEAR\CPP\CHESSPROJECT\CHESS\CHESS\DEBUG\VC141.PDB
C:\USERS\MAGSHIMIM\DOCUMENTS\MAGSHIMIM\2ND YEAR\CPP\CHESSPROJECT\CHESS\CHESS\DEBUG\VC141.IDB
C:\USERS\MAGSHIMIM\DOCUMENTS\MAGSHIMIM\2ND YEAR\CPP\CHESSPROJECT\CHESS\CHESS\DEBUG\SOURCE.OBJ
C:\USERS\MAGSHIMIM\DOCUMENTS\MAGSHIMIM\2ND YEAR\CPP\CHESSPROJECT\CHESS\CHESS\DEBUG\PAWN.OBJ
C:\USERS\MAGSHIMIM\DOCUMENTS\MAGSHIMIM\2ND YEAR\CPP\CHESSPROJECT\CHESS\CHESS\DEBUG\KNIGHT.OBJ
C:\USERS\MAGSHIMIM\DOCUMENTS\MAGSHIMIM\2ND YEAR\CPP\CHESSPROJECT\CHESS\CHESS\DEBUG\BORAD.OBJ
^C:\USERS\MAGSHIMIM\DOCUMENTS\MAGSHIMIM\2ND YEAR\CPP\CHESSPROJECT\CHESS\CHESS\BISHOP.CPP|C:\USERS\MAGSHIMIM\DOCUMENTS\MAGSHIMIM\2ND YEAR\CPP\CHESSPROJECT\CHESS\CHESS\BORAD.CPP|C:\USERS\MAGSHIMIM\DOCUMENTS\MAGSHIMIM\2ND YEAR\CPP\CHESSPROJECT\CHESS\CHESS\KNIGHT.CPP|C:\USERS\MAGSHIMIM\DOCUMENTS\MAGSHIMIM\2ND YEAR\CPP\CHESSPROJECT\CHESS\CHESS\PAWN.CPP|C:\USERS\MAGSHIMIM\DOCUMENTS\MAGSHIMIM\2ND YEAR\CPP\CHESSPROJECT\CHESS\CHESS\PIECE.CPP|C:\USERS\MAGSHIMIM\DOCUMENTS\MAGSHIMIM\2ND YEAR\CPP\CHESSPROJECT\CHESS\CHESS\QUEEN.CPP|C:\USERS\MAGSHIMIM\DOCUMENTS\MAGSHIMIM\2ND YEAR\CPP\CHESSPROJECT\CHESS\CHESS\ROOK.CPP|C:\USERS\MAGSHIMIM\DOCUMENTS\MAGSHIMIM\2ND YEAR\CPP\CHESSPROJECT\CHESS\CHESS\SOURCE.CPP
C:\USERS\MAGSHIMIM\DOCUMENTS\MAGSHIMIM\2ND YEAR\CPP\CHESSPROJECT\CHESS\CHESS\DEBUG\VC141.PDB
C:\USERS\MAGSHIMIM\DOCUMENTS\MAGSHIMIM\2ND YEAR\CPP\CHESSPROJECT\CHESS\CHESS\DEBUG\VC141.IDB
C:\USERS\MAGSHIMIM\DOCUMENTS\MAGSHIMIM\2ND YEAR\CPP\CHESSPROJECT\CHESS\CHESS\DEBUG\SOURCE.OBJ
C:\USERS\MAGSHIMIM\DOCUMENTS\MAGSHIMIM\2ND YEAR\CPP\CHESSPROJECT\CHESS\CHESS\DEBUG\ROOK.OBJ
C:\USERS\MAGSHIMIM\DOCUMENTS\MAGSHIMIM\2ND YEAR\CPP\CHESSPROJECT\CHESS\CHESS\DEBUG\QUEEN.OBJ
C:\USERS\MAGSHIMIM\DOCUMENTS\MAGSHIMIM\2ND YEAR\CPP\CHESSPROJECT\CHESS\CHESS\DEBUG\PIECE.OBJ
C:\USERS\MAGSHIMIM\DOCUMENTS\MAGSHIMIM\2ND YEAR\CPP\CHESSPROJECT\CHESS\CHESS\DEBUG\PAWN.OBJ
C:\USERS\MAGSHIMIM\DOCUMENTS\MAGSHIMIM\2ND YEAR\CPP\CHESSPROJECT\CHESS\CHESS\DEBUG\KNIGHT.OBJ
C:\USERS\MAGSHIMIM\DOCUMENTS\MAGSHIMIM\2ND YEAR\CPP\CHESSPROJECT\CHESS\CHESS\DEBUG\BISHOP.OBJ
^C:\USERS\MAGSHIMIM\DOCUMENTS\MAGSHIMIM\2ND YEAR\CPP\CHESSPROJECT\CHESS\CHESS\PIECE.CPP
C:\USERS\MAGSHIMIM\DOCUMENTS\MAGSHIMIM\2ND YEAR\CPP\CHESSPROJECT\CHESS\CHESS\DEBUG\PIECE.OBJ
^C:\USERS\MAGSHIMIM\DOCUMENTS\MAGSHIMIM\2ND YEAR\CPP\CHESSPROJECT\CHESS\CHESS\BISHOP.CPP|C:\USERS\MAGSHIMIM\DOCUMENTS\MAGSHIMIM\2ND YEAR\CPP\CHESSPROJECT\CHESS\CHESS\BORAD.CPP|C:\USERS\MAGSHIMIM\DOCUMENTS\MAGSHIMIM\2ND YEAR\CPP\CHESSPROJECT\CHESS\CHESS\KNIGHT.CPP|C:\USERS\MAGSHIMIM\DOCUMENTS\MAGSHIMIM\2ND YEAR\CPP\CHESSPROJECT\CHESS\CHESS\PAWN.CPP|C:\USERS\MAGSHIMIM\DOCUMENTS\MAGSHIMIM\2ND YEAR\CPP\CHESSPROJECT\CHESS\CHESS\QUEEN.CPP|C:\USERS\MAGSHIMIM\DOCUMENTS\MAGSHIMIM\2ND YEAR\CPP\CHESSPROJECT\CHESS\CHESS\ROOK.CPP|C:\USERS\MAGSHIMIM\DOCUMENTS\MAGSHIMIM\2ND YEAR\CPP\CHESSPROJECT\CHESS\CHESS\SOURCE.CPP
C:\USERS\MAGSHIMIM\DOCUMENTS\MAGSHIMIM\2ND YEAR\CPP\CHESSPROJECT\CHESS\CHESS\DEBUG\VC141.PDB
C:\USERS\MAGSHIMIM\DOCUMENTS\MAGSHIMIM\2ND YEAR\CPP\CHESSPROJECT\CHESS\CHESS\DEBUG\VC141.IDB
C:\USERS\MAGSHIMIM\DOCUMENTS\MAGSHIMIM\2ND YEAR\CPP\CHESSPROJECT\CHESS\CHESS\DEBUG\SOURCE.OBJ
C:\USERS\MAGSHIMIM\DOCUMENTS\MAGSHIMIM\2ND YEAR\CPP\CHESSPROJECT\CHESS\CHESS\DEBUG\ROOK.OBJ
C:\USERS\MAGSHIMIM\DOCUMENTS\MAGSHIMIM\2ND YEAR\CPP\CHESSPROJECT\CHESS\CHESS\DEBUG\QUEEN.OBJ
C:\USERS\MAGSHIMIM\DOCUMENTS\MAGSHIMIM\2ND YEAR\CPP\CHESSPROJECT\CHESS\CHESS\DEBUG\PAWN.OBJ
C:\USERS\MAGSHIMIM\DOCUMENTS\MAGSHIMIM\2ND YEAR\CPP\CHESSPROJECT\CHESS\CHESS\DEBUG\KNIGHT.OBJ
C:\USERS\MAGSHIMIM\DOCUMENTS\MAGSHIMIM\2ND YEAR\CPP\CHESSPROJECT\CHESS\CHESS\DEBUG\BORAD.OBJ
C:\USERS\MAGSHIMIM\DOCUMENTS\MAGSHIMIM\2ND YEAR\CPP\CHESSPROJECT\CHESS\CHESS\DEBUG\BISHOP.OBJ
^C:\USERS\MAGSHIMIM\DOCUMENTS\MAGSHIMIM\2ND YEAR\CPP\CHESSPROJECT\CHESS\CHESS\BISHOP.CPP
C:\USERS\MAGSHIMIM\DOCUMENTS\MAGSHIMIM\2ND YEAR\CPP\CHESSPROJECT\CHESS\CHESS\DEBUG\VC141.PDB
^C:\USERS\MAGSHIMIM\DOCUMENTS\MAGSHIMIM\2ND YEAR\CPP\CHESSPROJECT\CHESS\CHESS\KNIGHT.CPP
C:\USERS\MAGSHIMIM\DOCUMENTS\MAGSHIMIM\2ND YEAR\CPP\CHESSPROJECT\CHESS\CHESS\DEBUG\VC141.PDB
^C:\USERS\MAGSHIMIM\DOCUMENTS\MAGSHIMIM\2ND YEAR\CPP\CHESSPROJECT\CHESS\CHESS\ROOK.CPP
C:\USERS\MAGSHIMIM\DOCUMENTS\MAGSHIMIM\2ND YEAR\CPP\CHESSPROJECT\CHESS\CHESS\DEBUG\VC141.PDB
^C:\USERS\MAGSHIMIM\DOCUMENTS\MAGSHIMIM\2ND YEAR\CPP\CHESSPROJECT\CHESS\CHESS\BORAD.CPP|C:\USERS\MAGSHIMIM\DOCUMENTS\MAGSHIMIM\2ND YEAR\CPP\CHESSPROJECT\CHESS\CHESS\QUEEN.CPP|C:\USERS\MAGSHIMIM\DOCUMENTS\MAGSHIMIM\2ND YEAR\CPP\CHESSPROJECT\CHESS\CHESS\SOURCE.CPP
C:\USERS\MAGSHIMIM\DOCUMENTS\MAGSHIMIM\2ND YEAR\CPP\CHESSPROJECT\CHESS\CHESS\DEBUG\VC141.PDB
C:\USERS\MAGSHIMIM\DOCUMENTS\MAGSHIMIM\2ND YEAR\CPP\CHESSPROJECT\CHESS\CHESS\DEBUG\VC141.IDB
C:\USERS\MAGSHIMIM\DOCUMENTS\MAGSHIMIM\2ND YEAR\CPP\CHESSPROJECT\CHESS\CHESS\DEBUG\SOURCE.OBJ
C:\USERS\MAGSHIMIM\DOCUMENTS\MAGSHIMIM\2ND YEAR\CPP\CHESSPROJECT\CHESS\CHESS\DEBUG\QUEEN.OBJ
C:\USERS\MAGSHIMIM\DOCUMENTS\MAGSHIMIM\2ND YEAR\CPP\CHESSPROJECT\CHESS\CHESS\DEBUG\BORAD.OBJ
^C:\USERS\MAGSHIMIM\DOCUMENTS\MAGSHIMIM\2ND YEAR\CPP\CHESSPROJECT\CHESS\CHESS\BORAD.CPP
C:\USERS\MAGSHIMIM\DOCUMENTS\MAGSHIMIM\2ND YEAR\CPP\CHESSPROJECT\CHESS\CHESS\DEBUG\VC141.PDB
^C:\USERS\MAGSHIMIM\DOCUMENTS\MAGSHIMIM\2ND YEAR\CPP\CHESSPROJECT\CHESS\CHESS\QUEEN.CPP
C:\USERS\MAGSHIMIM\DOCUMENTS\MAGSHIMIM\2ND YEAR\CPP\CHESSPROJECT\CHESS\CHESS\DEBUG\VC141.PDB
^C:\USERS\MAGSHIMIM\DOCUMENTS\MAGSHIMIM\2ND YEAR\CPP\CHESSPROJECT\CHESS\CHESS\SOURCE.CPP
C:\USERS\MAGSHIMIM\DOCUMENTS\MAGSHIMIM\2ND YEAR\CPP\CHESSPROJECT\CHESS\CHESS\DEBUG\VC141.PDB
^C:\USERS\MAGSHIMIM\DOCUMENTS\MAGSHIMIM\2ND YEAR\CPP\CHESSPROJECT\CHESS\CHESS\PAWN.CPP
C:\USERS\MAGSHIMIM\DOCUMENTS\MAGSHIMIM\2ND YEAR\CPP\CHESSPROJECT\CHESS\CHESS\DEBUG\VC141.PDB
C:\USERS\MAGSHIMIM\DOCUMENTS\MAGSHIMIM\2ND YEAR\CPP\CHESSPROJECT\CHESS\CHESS\DEBUG\VC141.IDB
C:\USERS\MAGSHIMIM\DOCUMENTS\MAGSHIMIM\2ND YEAR\CPP\CHESSPROJECT\CHESS\CHESS\DEBUG\PAWN.OBJ
